27

3
Meredith Valenzuela
Kolby Galloway
Cohen Mcconnell
2 1 3
3 2 1
1 2 3

1
Rhett Chapman
1
1
1
1

7
Hillary Cline
Lainey Luna
Izabelle Colon
Mathias Haas
Hallie Olson
Alina Wheeler
Kaleb Sweeney
3 7 4 6 5 1 2
1 5 4 7 3 6 2
1 7 5 3 6 2 4
7 1 5 3 4 6 2
6 1 4 3 2 5 7
6 1 7 3 2 4 5
7 1 2 3 4 6 5
3 1 5 7 4 2 6
2 5 7 4 6 3 1
2 1 6 5 7 3 4

3
Aidan Ward
Kolby Galloway
Tyrone Hunt
2 1 3
1 2 3
2 1 3
3 1 2
1 3 2

1
Cohen Mcconnell
1

7
Robert Potts
Molly Collins
Tyrone Hunt
Mathias Haas
Aidan Ward
Izabelle Colon
Rhett Chapman
1 6 5 3 2 7 4
7 5 4 6 1 2 3
6 3 1 2 4 5 7
6 7 4 2 5 1 3
1 6 2 7 4 3 5
4 1 7 5 6 3 2
1 6 2 7 5 3 4
2 1 5 6 7 4 3

4
Mathias Haas
Meredith Valenzuela
Lainey Luna
Hallie Olson
2 4 1 3
3 1 4 2
1 3 4 2
3 4 1 2
4 1 2 3
4 1 3 2
3 2 1 4
4 2 1 3

2
Rhett Chapman
Cohen Mcconnell
1 2
2 1
2 1
1 2
2 1

1
Rhett Chapman
1
1
1
1
1
1

3
Meredith Valenzuela
Kaleb Sweeney
Kailee Johnson
3 2 1
2 1 3
2 1 3
3 1 2
3 2 1
2 3 1
3 2 1
2 3 1
3 2 1

1
Deandre Olson
1

7
Boston Weeks
Molly Collins
Robert Potts
Meredith Valenzuela
Tatum Gross
Lainey Luna
Angela Bauer
6 1 5 7 4 3 2
3 2 5 4 7 6 1
3 4 1 5 6 7 2
2 6 1 3 4 7 5
2 4 6 3 5 1 7
4 3 2 5 1 7 6
4 7 1 2 3 6 5
4 1 5 7 3 6 2
4 5 3 1 6 7 2

6
Molly Collins
Cohen Mcconnell
Lainey Luna
Hallie Olson
Izabelle Colon
Meredith Valenzuela
4 2 6 1 3 5
2 6 1 3 5 4
5 2 6 4 1 3

7
Kolby Galloway
Alina Wheeler
Kaleb Sweeney
Boston Weeks
Angela Bauer
Kailee Johnson
Mathias Haas
6 2 1 3 7 5 4
7 2 6 4 3 1 5
3 4 1 7 6 5 2
6 1 3 2 4 5 7

3
Rhett Chapman
Deandre Olson
Molly Collins
2 3 1
2 3 1

6
Hillary Cline
Tyrone Hunt
Angela Bauer
Kaleb Sweeney
Alina Wheeler
Boston Weeks
5 2 3 4 6 1

2
Aidan Ward
Lainey Luna
2 1

5
Alina Wheeler
Mathias Haas
Kailee Johnson
Rhett Chapman
Robert Potts
1 4 3 5 2
2 3 4 1 5
1 3 2 4 5
3 1 5 4 2
2 1 4 5 3

4
Kaleb Sweeney
Kolby Galloway
Tyrone Hunt
Hillary Cline
2 1 3 4
1 3 4 2
2 4 3 1
3 4 2 1
1 2 4 3
2 4 1 3

5
Lainey Luna
Boston Weeks
Tyrone Hunt
Meredith Valenzuela
Alina Wheeler
3 5 4 2 1
2 3 4 5 1
1 4 2 3 5
3 1 2 5 4

1
Izabelle Colon
1
1
1
1
1
1
1
1
1

4
Mathias Haas
Lainey Luna
Tatum Gross
Hallie Olson
1 3 4 2
2 3 4 1

2
Izabelle Colon
Aidan Ward
1 2
2 1

7
Hallie Olson
Aidan Ward
Cohen Mcconnell
Lainey Luna
Rhett Chapman
Kolby Galloway
Kaleb Sweeney
7 1 6 2 3 5 4
5 1 7 2 6 3 4
5 3 4 7 1 2 6
7 4 3 5 6 2 1
1 5 7 4 2 6 3

2
Aidan Ward
Kolby Galloway
2 1
2 1

4
Boston Weeks
Angela Bauer
Kolby Galloway
Izabelle Colon
2 3 1 4

1
Hallie Olson
1
1
1
1
1
1
1
1
