21

9
Lucia Clarke
Edward Henderson
Jenny Wade
Devin Poole
Margaret Sparks
Sylvester Banks
Jermaine Gonzalez
Derek Robinson
Sophie Morton
6 1 8 3 9 7 4 2 5
5 1 2 6 8 3 9 4 7
6 3 1 7 4 9 5 8 2
1 9 5 7 3 4 8 6 2
7 5 1 2 9 8 6 4 3
8 2 5 4 6 9 3 1 7
4 8 6 1 5 2 3 9 7

3
Lucia Clarke
Edward Henderson
Jenny Wade
1 3 2
3 1 2
3 1 2

6
Lucia Clarke
Edward Henderson
Jenny Wade
Devin Poole
Margaret Sparks
Sylvester Banks
3 1 2 6 5 4
2 5 3 6 4 1
2 1 6 5 4 3
6 4 1 5 3 2
1 6 4 2 5 3
6 4 2 3 5 1
1 3 4 6 2 5
6 2 1 5 4 3
3 5 1 6 4 2
3 5 4 2 1 6

5
Lucia Clarke
Edward Henderson
Jenny Wade
Devin Poole
Margaret Sparks
1 2 4 5 3
3 1 2 4 5
3 2 1 4 5
5 3 2 1 4
4 2 3 5 1
3 4 5 2 1
2 3 4 5 1
5 2 1 4 3
3 5 2 4 1

10
Lucia Clarke
Edward Henderson
Jenny Wade
Devin Poole
Margaret Sparks
Sylvester Banks
Jermaine Gonzalez
Derek Robinson
Sophie Morton
Tyrone Quinn
7 3 2 10 9 8 5 6 1 4
6 4 5 10 9 1 2 7 8 3
10 3 6 2 4 7 1 9 5 8

5
Lucia Clarke
Edward Henderson
Jenny Wade
Devin Poole
Margaret Sparks
4 1 2 3 5
2 1 3 5 4
4 1 2 3 5
1 3 2 5 4
3 2 4 1 5

4
Lucia Clarke
Edward Henderson
Jenny Wade
Devin Poole
4 2 3 1
2 1 3 4
2 3 4 1
4 2 3 1
1 4 2 3
3 2 1 4
2 4 3 1

3
Lucia Clarke
Edward Henderson
Jenny Wade
3 2 1
2 1 3
2 3 1

2
Lucia Clarke
Edward Henderson
1 2
2 1
1 2
1 2

9
Lucia Clarke
Edward Henderson
Jenny Wade
Devin Poole
Margaret Sparks
Sylvester Banks
Jermaine Gonzalez
Derek Robinson
Sophie Morton
3 1 2 6 7 4 8 9 5
5 2 7 4 9 8 6 3 1
8 5 7 4 3 1 2 6 9
9 6 1 8 2 3 7 5 4
5 8 6 3 2 1 4 9 7

5
Lucia Clarke
Edward Henderson
Jenny Wade
Devin Poole
Margaret Sparks
2 5 4 3 1
5 4 2 3 1
2 4 1 3 5
4 3 1 2 5
5 1 4 3 2
5 3 4 1 2
3 2 4 1 5
1 2 3 5 4
3 2 4 5 1
5 3 2 4 1

7
Lucia Clarke
Edward Henderson
Jenny Wade
Devin Poole
Margaret Sparks
Sylvester Banks
Jermaine Gonzalez
2 5 7 4 1 3 6
6 7 2 3 4 5 1
1 4 6 7 3 5 2
1 6 4 5 2 3 7
3 2 7 6 1 5 4
1 5 4 3 7 6 2

8
Lucia Clarke
Edward Henderson
Jenny Wade
Devin Poole
Margaret Sparks
Sylvester Banks
Jermaine Gonzalez
Derek Robinson
7 5 4 8 2 1 6 3
7 1 8 4 6 2 3 5

10
Lucia Clarke
Edward Henderson
Jenny Wade
Devin Poole
Margaret Sparks
Sylvester Banks
Jermaine Gonzalez
Derek Robinson
Sophie Morton
Tyrone Quinn
9 1 6 8 10 4 3 2 7 5
10 4 9 2 7 3 8 6 1 5
2 7 6 5 4 9 1 10 3 8
5 8 6 10 3 2 7 1 4 9

6
Lucia Clarke
Edward Henderson
Jenny Wade
Devin Poole
Margaret Sparks
Sylvester Banks
4 2 1 6 3 5
2 1 6 4 3 5
3 2 6 5 4 1
4 3 5 6 1 2
5 4 1 3 2 6
6 1 5 3 4 2
1 4 6 2 3 5
6 5 4 2 1 3

9
Lucia Clarke
Edward Henderson
Jenny Wade
Devin Poole
Margaret Sparks
Sylvester Banks
Jermaine Gonzalez
Derek Robinson
Sophie Morton
9 2 5 1 4 8 6 7 3
5 3 1 4 2 9 8 7 6
9 7 6 2 1 3 5 8 4
1 9 3 4 8 5 2 7 6
4 7 3 6 5 2 1 8 9
4 1 8 9 3 6 7 2 5

2
Lucia Clarke
Edward Henderson
1 2
2 1
2 1
2 1
2 1
2 1

7
Lucia Clarke
Edward Henderson
Jenny Wade
Devin Poole
Margaret Sparks
Sylvester Banks
Jermaine Gonzalez
1 3 4 5 7 6 2
6 7 2 5 3 1 4
1 4 5 7 3 2 6
2 7 3 6 1 5 4

5
Lucia Clarke
Edward Henderson
Jenny Wade
Devin Poole
Margaret Sparks
3 4 2 5 1
3 5 1 2 4
2 1 5 4 3
3 2 1 5 4
4 5 3 2 1
4 2 3 1 5
3 4 1 2 5
4 3 5 2 1
4 2 1 5 3

6
Lucia Clarke
Edward Henderson
Jenny Wade
Devin Poole
Margaret Sparks
Sylvester Banks
3 2 1 5 4 6

8
Lucia Clarke
Edward Henderson
Jenny Wade
Devin Poole
Margaret Sparks
Sylvester Banks
Jermaine Gonzalez
Derek Robinson
4 3 8 1 5 7 6 2
7 4 5 6 8 2 3 1
2 3 5 6 1 7 8 4
5 8 7 6 3 4 1 2
5 6 2 3 7 8 4 1
